int num;
            string check;

            var word = new List<string>();
            var result = new List<string>();
            word.Add("Fizz");
            word.Add("Buzz");
            word.Add("FizzBuzz");

            var number = new List<int>();

            for (; ; )
            {
                check = Console.ReadLine();
                if (check == "s")
                    break;
                else
                {
                    try
                    {
                        num = Convert.ToInt32(check);
                        number.Add(num);
                    }
                    catch
                    {
                        Console.WriteLine("Ошибка");
                    }
                }
            }


            for (int numbers = 0; numbers < number.Count; numbers++)
            {
                if (number[numbers] % 3 == 0 && number[numbers] % 5 == 0)
                    result.Add(word[2]);
                else if (number[numbers] % 3 == 0)
                    result.Add(word[0]);
                else if (number[numbers] % 5 == 0)
                    result.Add(word[1]);
                else
                    Console.WriteLine();
            }

            for (int i = 0; i < result.Count; i++)
                Console.WriteLine(result[i]);

            Console.ReadKey();